<?xml version="1.0" encoding="UTF-8" standalone="no"?>
<!-- Created with Inkscape (http://www.inkscape.org/) -->

<svg
   xmlns:dc="http://purl.org/dc/elements/1.1/"
   xmlns:cc="http://creativecommons.org/ns#"
   xmlns:rdf="http://www.w3.org/1999/02/22-rdf-syntax-ns#"
   xmlns:svg="http://www.w3.org/2000/svg"
   xmlns="http://www.w3.org/2000/svg"
   xmlns:xlink="http://www.w3.org/1999/xlink"
   xmlns:sodipodi="http://sodipodi.sourceforge.net/DTD/sodipodi-0.dtd"
   xmlns:inkscape="http://www.inkscape.org/namespaces/inkscape"
   width="48"
   height="48"
   id="svg79606"
   sodipodi:version="0.32"
   inkscape:version="0.48.2 r9819"
   version="1.0"
   sodipodi:docname="Button-Clip-7.svg"
   inkscape:output_extension="org.inkscape.output.svg.inkscape">
  <defs
     id="defs79608">
    <inkscape:perspective
       sodipodi:type="inkscape:persp3d"
       inkscape:vp_x="0 : 24 : 1"
       inkscape:vp_y="0 : 1000 : 0"
       inkscape:vp_z="48 : 24 : 1"
       inkscape:persp3d-origin="24 : 16 : 1"
       id="perspective20" />
    <linearGradient
       id="linearGradient5783">
      <stop
         style="stop-color:#d3d7cf;stop-opacity:1;"
         offset="0"
         id="stop5785" />
      <stop
         id="stop5791"
         offset="0.5"
         style="stop-color:#f5f5f5;stop-opacity:1;" />
      <stop
         style="stop-color:#bebebe;stop-opacity:1;"
         offset="1"
         id="stop5787" />
    </linearGradient>
    <linearGradient
       inkscape:collect="always"
       id="linearGradient3558">
      <stop
         style="stop-color:#000000;stop-opacity:1;"
         offset="0"
         id="stop3560" />
      <stop
         style="stop-color:#000000;stop-opacity:0;"
         offset="1"
         id="stop3562" />
    </linearGradient>
    <radialGradient
       inkscape:collect="always"
       xlink:href="#linearGradient3558"
       id="radialGradient3564"
       cx="21.761711"
       cy="23.07144"
       fx="21.761711"
       fy="23.07144"
       r="15.571428"
       gradientTransform="matrix(0.977282,3.554943e-8,-8.305337e-10,0.651376,-0.79443,15.82896)"
       gradientUnits="userSpaceOnUse" />
    <linearGradient
       inkscape:collect="always"
       xlink:href="#linearGradient5783"
       id="linearGradient5789"
       x1="23.505953"
       y1="5.7753429"
       x2="20.604948"
       y2="29.85923"
       gradientUnits="userSpaceOnUse" />
    <linearGradient
       inkscape:collect="always"
       xlink:href="#linearGradient5783"
       id="linearGradient3769"
       gradientUnits="userSpaceOnUse"
       x1="23.505953"
       y1="5.7753429"
       x2="20.604948"
       y2="29.85923"
       gradientTransform="translate(-10.505952,0.16849347)" />
  </defs>
  <sodipodi:namedview
     id="base"
     pagecolor="#ffffff"
     bordercolor="#666666"
     borderopacity="0.23529412"
     inkscape:pageopacity="0.0"
     inkscape:pageshadow="2"
     inkscape:zoom="10.890152"
     inkscape:cx="20.050644"
     inkscape:cy="31.569809"
     inkscape:current-layer="layer1"
     showgrid="true"
     inkscape:grid-bbox="true"
     inkscape:document-units="px"
     inkscape:window-width="1245"
     inkscape:window-height="920"
     inkscape:window-x="106"
     inkscape:window-y="24"
     stroke="#d3d7cf"
     inkscape:showpageshadow="false"
     inkscape:window-maximized="0"
     showguides="true"
     inkscape:guide-bbox="true">
    <inkscape:grid
       id="GridFromPre046Settings"
       type="xygrid"
       originx="0px"
       originy="0px"
       spacingx="1px"
       spacingy="1px"
       color="#0000ff"
       empcolor="#0000ff"
       opacity="0.2"
       empopacity="0.4"
       empspacing="4"
       visible="true"
       enabled="true"
       snapvisiblegridlinesonly="true" />
  </sodipodi:namedview>
  <metadata
     id="metadata79611">
    <rdf:RDF>
      <cc:Work
         rdf:about="">
        <dc:format>image/svg+xml</dc:format>
        <dc:type
           rdf:resource="http://purl.org/dc/dcmitype/StillImage" />
        <dc:title></dc:title>
        <dc:date>2005-11-04</dc:date>
        <dc:creator>
          <cc:Agent>
            <dc:title>Andreas Nilsson</dc:title>
          </cc:Agent>
        </dc:creator>
        <dc:source>http://tango-project.org</dc:source>
        <dc:subject>
          <rdf:Bag>
            <rdf:li>attachment</rdf:li>
            <rdf:li>file</rdf:li>
          </rdf:Bag>
        </dc:subject>
        <cc:license
           rdf:resource="http://creativecommons.org/licenses/publicdomain/" />
        <dc:contributor>
          <cc:Agent>
            <dc:title>Garrett LeSage</dc:title>
          </cc:Agent>
        </dc:contributor>
      </cc:Work>
      <cc:License
         rdf:about="http://creativecommons.org/licenses/publicdomain/">
        <cc:permits
           rdf:resource="http://creativecommons.org/ns#Reproduction" />
        <cc:permits
           rdf:resource="http://creativecommons.org/ns#Distribution" />
        <cc:permits
           rdf:resource="http://creativecommons.org/ns#DerivativeWorks" />
      </cc:License>
    </rdf:RDF>
  </metadata>
  <g
     inkscape:groupmode="layer"
     id="layer2"
     inkscape:label="Folder"
     style="display:inline">
    <rect
       style="fill:#8c8c94;fill-opacity:1;stroke:none"
       id="rect2998"
       width="56"
       height="48"
       x="-12"
       y="-4"
       rx="6.8571429"
       ry="7.0243902"
       inkscape:export-filename="/Users/msellers/Downloads/Button-Clip-7.png"
       inkscape:export-xdpi="45"
       inkscape:export-ydpi="45" />
  </g>
  <g
     id="layer1"
     inkscape:label="Clip"
     inkscape:groupmode="layer">
    <g
       id="g3766"
       transform="translate(3.9999998,-2.9999999)"
       inkscape:export-filename="/Users/msellers/Downloads/Button-Clip-7@2x.png"
       inkscape:export-xdpi="90"
       inkscape:export-ydpi="90">
      <path
         inkscape:r_cy="true"
         inkscape:r_cx="true"
         d="m 9.8203847,9.384028 -10.877151,18.614406 c -1.9224999,3.29138 -0.7716107,7.538902 2.558905,9.43994 l 2.094306,1.196865 c 3.33168,1.901036 7.6298573,0.762663 9.5535223,-2.528715 L 24.905728,15.984785 C 26.829394,12.692281 26.119092,8.6967301 23.329404,7.1039091 20.539483,5.511088 16.681894,6.9014319 14.759394,10.193936 L 6.6036287,24.155868 c -1.923432,3.291377 -2.130672,6.771738 -0.462034,7.736879 1.669804,0.962892 4.6098513,-0.942645 6.5323513,-4.234025 l 3.96249,-6.782988"
         id="path7057"
         style="fill:none;stroke:#ffffff;stroke-width:3;stroke-linecap:round;stroke-linejoin:round;stroke-miterlimit:4;stroke-opacity:1;stroke-dasharray:none"
         inkscape:connector-curvature="0" />
      <path
         inkscape:r_cy="true"
         inkscape:r_cx="true"
         d="M 10.820385,9.3840284 -0.056766,27.998434 c -1.9224999,3.29138 -0.7716107,7.538902 2.558905,9.43994 l 2.094306,1.196865 c 3.33168,1.901036 7.629857,0.762663 9.553522,-2.528715 L 25.905728,15.984785 C 27.829394,12.692281 27.119092,8.6967305 24.329404,7.1039095 21.539483,5.5110884 17.681894,6.9014323 15.759394,10.193937 L 7.603629,24.155868 c -1.923432,3.291377 -2.130672,6.771738 -0.462034,7.736879 1.669804,0.962892 4.609851,-0.942645 6.532351,-4.234025 l 3.96249,-6.782988"
         id="path7053"
         style="fill:none;stroke:#ffffff;stroke-width:1;stroke-linecap:round;stroke-linejoin:round;stroke-miterlimit:4;stroke-opacity:1;stroke-dasharray:none"
         inkscape:connector-curvature="0" />
    </g>
  </g>
</svg>
