AccentText,#2dbd9b
CallHistoryIcon,#2dbd9b
CallHistoryUnderline,#2dbd9b
CellSelectedBackground,#c4e8dd
ChatBackground,#f8f8f8
ChatPrimaryText,#2dbd9b
ChatSecondaryText,#b4b4b4
ChatSeparator,#b4b4b4
HighlightBackground,#2dbd9b
HighlightText,#ffffff
Icon,#475561
IncomingChatBalloon,#ffffff
IncomingChatText,#323232
LoginBackground,#ffffff
NavIcon,#ffffff
OutgoingChatBalloon,#627789
OutgoingChatText,#ffffff
PrimaryBackground,#2dbd9b
PrimaryButton,#2dbd9b
PrimaryButtonReverse,#ffffff
PrimarySeparator,#2dbd9b
PrimaryText,#ffffff
SecondaryBackground,#627789
SecondaryText,#ffffff
SelectedCallHistoryBackground,#c4e8dd
SelectedIcon,#2dbd9b
SelectedIconBar,#ff3347
SelectedNavIconBackground,#c4e8dd
SelectedTab,#2dbd9b
SelectedThumbnailOutline,#2dbd9b
SettingsHeaderBackground,#2dbd9b
SettingsHeaderText,#ffffff
TertiaryBackground,#0c2c3e
